<svg viewBox="0 0 166 167" fill="none" xmlns="http://www.w3.org/2000/svg">
<g clip-path="url(#clip0)">
<path d="M138.804 110.07C140.526 109.374 141.358 107.413 140.661 105.691C139.965 103.968 138.004 103.137 136.282 103.833C134.559 104.53 133.728 106.491 134.424 108.213C135.121 109.935 137.082 110.767 138.804 110.07Z" fill="#107C82"/>
<path d="M117.571 111.4C121.016 110.007 122.679 106.085 121.286 102.641C119.893 99.1965 115.971 97.5334 112.527 98.9263C109.082 100.319 107.419 104.241 108.812 107.685C110.205 111.13 114.127 112.793 117.571 111.4Z" fill="#107C82"/>
<path d="M116.54 86.4186C118.262 85.7221 119.093 83.7613 118.397 82.0391C117.7 80.3169 115.74 79.4853 114.017 80.1818C112.295 80.8783 111.464 82.839 112.16 84.5613C112.857 86.2835 114.817 87.1151 116.54 86.4186Z" fill="#107C82"/>
<path d="M168.028 74.6677C168.855 74.3333 169.781 74.3411 170.602 74.6894C171.423 75.0377 172.073 75.698 172.407 76.5251C172.741 77.3521 172.734 78.2782 172.385 79.0995C172.037 79.9208 171.377 80.5701 170.55 80.9045L165.872 82.7962C162.055 84.5466 158.508 86.8361 155.342 89.5946C156.123 93.3441 156.215 97.2046 155.613 100.987C159.237 104.449 163.375 107.329 167.882 109.523L171.883 111.207L171.914 111.194C172.839 110.82 173.854 110.729 174.831 110.932C175.808 111.135 176.703 111.623 177.403 112.334C178.103 113.046 178.576 113.949 178.762 114.929C178.949 115.909 178.84 116.923 178.45 117.842C178.061 118.761 177.408 119.543 176.573 120.091C175.739 120.638 174.761 120.926 173.763 120.917C172.765 120.909 171.792 120.605 170.967 120.043C170.142 119.482 169.502 118.689 169.128 117.763L169.115 117.732L165.123 116.027C160.591 114.369 155.835 113.406 151.015 113.169C148.502 117.156 145.133 120.533 141.152 123.054C141.37 127.248 142.189 131.389 143.584 135.35L145.476 140.028C145.81 140.855 145.803 141.781 145.454 142.602C145.106 143.423 144.446 144.073 143.619 144.407C142.792 144.742 141.866 144.734 141.044 144.385C140.223 144.037 139.574 143.377 139.239 142.55L137.347 137.872C135.597 134.055 133.308 130.508 130.549 127.342C125.934 128.297 121.165 128.211 116.587 127.092C113.287 130.612 110.537 134.611 108.431 138.953L106.747 142.954L106.76 142.985C107.134 143.91 107.225 144.926 107.022 145.903C106.819 146.88 106.331 147.775 105.62 148.474C104.908 149.174 104.005 149.647 103.025 149.834C102.044 150.02 101.031 149.912 100.112 149.522C99.1934 149.132 98.4108 148.479 97.8634 147.645C97.316 146.81 97.0283 145.832 97.0367 144.834C97.0451 143.836 97.3492 142.863 97.9105 142.038C98.4719 141.213 99.2653 140.573 100.19 140.199L100.222 140.187L101.927 136.195C103.642 131.485 104.615 126.538 104.814 121.53C101.752 119.23 99.1343 116.39 97.0898 113.152C92.8958 113.37 88.7548 114.189 84.7937 115.584L80.1161 117.476C79.289 117.81 78.363 117.803 77.5416 117.454C76.7203 117.106 76.071 116.446 75.7366 115.619C75.4021 114.792 75.4099 113.866 75.7582 113.044C76.1065 112.223 76.7668 111.574 77.5939 111.239L82.2715 109.348C86.089 107.597 89.6354 105.308 92.8021 102.549C92.0206 98.7997 91.9287 94.9392 92.5309 91.1568C88.907 87.6944 84.7682 84.8149 80.262 82.6208L76.2611 80.9369L76.2299 80.9495C75.3047 81.3236 74.2894 81.415 73.3123 81.2121C72.3353 81.0092 71.4403 80.5211 70.7406 79.8096C70.0409 79.098 69.5679 78.195 69.3815 77.2146C69.195 76.2343 69.3035 75.2207 69.6931 74.3019C70.0827 73.3832 70.736 72.6007 71.5704 72.0532C72.4048 71.5058 73.3828 71.2181 74.3807 71.2265C75.3785 71.2349 76.3515 71.539 77.1766 72.1004C78.0017 72.6617 78.6417 73.4551 79.0158 74.3803L79.0285 74.4115L83.0201 76.1172C87.5524 77.7745 92.309 78.7378 97.1289 78.9746C99.6411 74.9876 103.011 71.6108 106.992 69.0898C106.774 64.8958 105.955 60.7549 104.559 56.7937L102.668 52.1161C102.333 51.2891 102.341 50.363 102.689 49.5417C103.038 48.7204 103.698 48.0711 104.525 47.7366C105.352 47.4022 106.278 47.41 107.099 47.7583C107.921 48.1066 108.57 48.7669 108.904 49.594L110.796 54.2716C112.547 58.089 114.836 61.6354 117.595 64.8021C122.209 63.8468 126.979 63.9323 131.556 65.0522C134.857 61.5315 137.606 57.5326 139.713 53.1907L141.396 49.1898L141.384 49.1586C141.01 48.2335 140.918 47.2182 141.121 46.2411C141.324 45.264 141.812 44.369 142.524 43.6693C143.235 42.9696 144.138 42.4967 145.119 42.3102C146.099 42.1238 147.113 42.2322 148.031 42.6218C148.95 43.0115 149.733 43.6648 150.28 44.4991C150.828 45.3335 151.115 46.3115 151.107 47.3094C151.099 48.3073 150.794 49.2803 150.233 50.1053C149.672 50.9304 148.878 51.5705 147.953 51.9446L147.922 51.9572L146.216 55.9488C144.502 60.6586 143.528 65.6056 143.33 70.6137C146.392 72.9142 149.009 75.7533 151.054 78.9921C155.248 78.7739 159.389 77.9546 163.35 76.5594L168.028 74.6677ZM140.891 83.8278C140.516 82.9026 139.876 82.1092 139.051 81.5478C138.226 80.9864 137.253 80.6823 136.255 80.674C135.257 80.6656 134.28 80.9533 133.445 81.5007C132.611 82.0481 131.957 82.8307 131.568 83.7494C131.178 84.6681 131.07 85.6818 131.256 86.6621C131.443 87.6425 131.916 88.5455 132.615 89.2571C133.315 89.9686 134.21 90.4567 135.187 90.6596C136.164 90.8625 137.179 90.7711 138.105 90.397C139.345 89.8953 140.336 88.9213 140.858 87.6894C141.381 86.4574 141.392 85.0683 140.891 83.8278ZM140.661 105.691C140.412 105.074 139.985 104.545 139.435 104.171C138.885 103.797 138.236 103.594 137.571 103.588C136.906 103.583 136.254 103.775 135.697 104.14C135.141 104.504 134.706 105.026 134.446 105.639C134.186 106.251 134.114 106.927 134.238 107.58C134.362 108.234 134.678 108.836 135.144 109.31C135.611 109.785 136.207 110.11 136.859 110.245C137.51 110.381 138.187 110.32 138.804 110.07C139.629 109.734 140.288 109.084 140.636 108.264C140.984 107.443 140.993 106.518 140.661 105.691ZM118.397 82.0391C118.147 81.4223 117.721 80.8933 117.171 80.5191C116.621 80.1448 115.972 79.9421 115.307 79.9365C114.642 79.9309 113.99 80.1227 113.433 80.4877C112.877 80.8526 112.441 81.3743 112.182 81.9868C111.922 82.5993 111.85 83.2751 111.974 83.9286C112.098 84.5822 112.414 85.1842 112.88 85.6586C113.347 86.133 113.943 86.4584 114.595 86.5936C115.246 86.7289 115.923 86.668 116.54 86.4185C117.365 86.0819 118.023 85.4324 118.371 84.6118C118.719 83.7913 118.729 82.8663 118.397 82.0391ZM121.286 102.641C120.787 101.408 119.934 100.35 118.833 99.6012C117.733 98.8527 116.436 98.4472 115.106 98.436C113.775 98.4248 112.471 98.8084 111.359 99.5383C110.246 100.268 109.375 101.312 108.855 102.537C108.336 103.762 108.191 105.113 108.44 106.42C108.689 107.727 109.319 108.931 110.252 109.88C111.185 110.829 112.378 111.48 113.681 111.75C114.984 112.021 116.338 111.899 117.571 111.4C119.225 110.731 120.546 109.433 121.243 107.79C121.939 106.147 121.955 104.295 121.286 102.641Z" fill="#21ABAB"/>
<path d="M138.105 90.3969C140.688 89.3522 141.935 86.4111 140.891 83.8277C139.846 81.2443 136.905 79.997 134.321 81.0417C131.738 82.0864 130.491 85.0276 131.535 87.611C132.58 90.1943 135.521 91.4416 138.105 90.3969Z" fill="#107C82"/>
<path d="M113.983 71.1247C109.049 73.1201 104.817 76.5337 101.823 80.934C98.8294 85.3343 97.2075 90.5237 97.1628 95.8458C97.1181 101.168 98.6525 106.384 101.572 110.834C104.492 115.284 108.665 118.768 113.565 120.846C118.465 122.924 123.871 123.502 129.1 122.508C134.328 121.514 139.144 118.991 142.939 115.259C146.734 111.528 149.337 106.755 150.42 101.543C151.502 96.3323 151.014 90.9173 149.019 85.9832C146.343 79.3668 141.149 74.0843 134.578 71.2978C128.008 68.5113 120.6 68.449 113.983 71.1247ZM117.571 111.4C116.338 111.899 114.984 112.021 113.681 111.75C112.378 111.48 111.185 110.829 110.252 109.88C109.319 108.931 108.689 107.727 108.44 106.42C108.191 105.113 108.336 103.762 108.855 102.537C109.375 101.312 110.246 100.268 111.359 99.5384C112.471 98.8085 113.775 98.4249 115.106 98.4361C116.436 98.4472 117.733 98.8527 118.833 99.6012C119.934 100.35 120.787 101.408 121.286 102.641C121.955 104.295 121.939 106.147 121.243 107.79C120.546 109.433 119.225 110.731 117.571 111.4ZM116.54 86.4186C115.923 86.668 115.246 86.7289 114.595 86.5937C113.943 86.4584 113.347 86.133 112.88 85.6586C112.414 85.1843 112.098 84.5822 111.974 83.9287C111.85 83.2751 111.922 82.5994 112.182 81.9869C112.441 81.3744 112.877 80.8527 113.433 80.4877C113.99 80.1228 114.642 79.931 115.307 79.9366C115.972 79.9422 116.621 80.1449 117.171 80.5191C117.721 80.8934 118.147 81.4223 118.397 82.0391C118.729 82.8664 118.719 83.7913 118.371 84.6119C118.023 85.4325 117.365 86.082 116.54 86.4186ZM138.804 110.07C138.187 110.32 137.51 110.381 136.859 110.245C136.207 110.11 135.611 109.785 135.144 109.31C134.678 108.836 134.362 108.234 134.238 107.58C134.114 106.927 134.186 106.251 134.446 105.639C134.706 105.026 135.141 104.505 135.697 104.14C136.254 103.775 136.906 103.583 137.571 103.588C138.236 103.594 138.885 103.797 139.435 104.171C139.985 104.545 140.412 105.074 140.661 105.691C140.993 106.518 140.984 107.443 140.636 108.264C140.288 109.084 139.629 109.734 138.804 110.07ZM138.105 90.397C137.179 90.7712 136.164 90.8626 135.187 90.6596C134.21 90.4567 133.315 89.9687 132.615 89.2571C131.916 88.5456 131.443 87.6425 131.256 86.6622C131.07 85.6818 131.178 84.6682 131.568 83.7494C131.957 82.8307 132.611 82.0482 133.445 81.5007C134.28 80.9533 135.257 80.6656 136.255 80.674C137.253 80.6824 138.226 80.9865 139.051 81.5479C139.876 82.1092 140.516 82.9027 140.891 83.8278C141.392 85.0684 141.381 86.4574 140.858 87.6894C140.336 88.9214 139.345 89.8953 138.105 90.397Z" fill="#34C1AD"/>
<path d="M111.896 97.3673C110.354 97.9909 109.032 99.0576 108.096 100.433C107.161 101.808 106.654 103.429 106.64 105.093C106.626 106.756 107.106 108.386 108.018 109.776C108.93 111.167 110.235 112.256 111.766 112.905C113.297 113.555 114.986 113.735 116.62 113.425C118.254 113.114 119.759 112.326 120.945 111.159C122.131 109.993 122.945 108.502 123.283 106.873C123.621 105.245 123.469 103.553 122.845 102.011C122.009 99.943 120.386 98.2922 118.332 97.4214C116.279 96.5506 113.964 96.5312 111.896 97.3673ZM117.571 111.4C116.338 111.899 114.984 112.021 113.681 111.75C112.378 111.48 111.185 110.829 110.252 109.88C109.319 108.931 108.689 107.727 108.44 106.42C108.191 105.113 108.336 103.762 108.856 102.537C109.375 101.312 110.246 100.268 111.359 99.5384C112.471 98.8085 113.775 98.4249 115.106 98.4361C116.436 98.4472 117.733 98.8527 118.834 99.6012C119.934 100.35 120.787 101.408 121.286 102.641C121.955 104.295 121.939 106.147 121.243 107.79C120.546 109.433 119.225 110.731 117.571 111.4Z" fill="#13969D"/>
<path d="M113.387 78.6225C112.462 78.9967 111.668 79.6367 111.107 80.4618C110.546 81.2868 110.241 82.2598 110.233 83.2577C110.225 84.2556 110.512 85.2336 111.06 86.068C111.607 86.9023 112.39 87.5557 113.308 87.9453C114.227 88.3349 115.241 88.4434 116.221 88.2569C117.202 88.0704 118.105 87.5975 118.816 86.8978C119.528 86.1981 120.016 85.3031 120.219 84.326C120.422 83.349 120.33 82.3337 119.956 81.4085C119.454 80.1679 118.48 79.1775 117.248 78.655C116.016 78.1325 114.627 78.1208 113.387 78.6225ZM116.54 86.4185C115.923 86.668 115.246 86.7289 114.595 86.5936C113.943 86.4583 113.346 86.133 112.88 85.6586C112.414 85.1842 112.098 84.5822 111.974 83.9286C111.85 83.275 111.922 82.5993 112.182 81.9868C112.441 81.3743 112.877 80.8526 113.433 80.4877C113.989 80.1227 114.641 79.9309 115.307 79.9365C115.972 79.9421 116.621 80.1448 117.171 80.5191C117.721 80.8933 118.147 81.4223 118.397 82.0391C118.729 82.8663 118.719 83.7913 118.371 84.6118C118.023 85.4324 117.365 86.0819 116.54 86.4185Z" fill="#13969D"/>
<path d="M135.651 102.274C134.726 102.649 133.932 103.289 133.371 104.114C132.81 104.939 132.506 105.912 132.497 106.91C132.489 107.907 132.777 108.885 133.324 109.72C133.871 110.554 134.654 111.208 135.573 111.597C136.491 111.987 137.505 112.095 138.485 111.909C139.466 111.722 140.369 111.249 141.08 110.55C141.792 109.85 142.28 108.955 142.483 107.978C142.686 107.001 142.594 105.986 142.22 105.06C141.719 103.82 140.745 102.829 139.513 102.307C138.281 101.784 136.892 101.773 135.651 102.274ZM138.804 110.07C138.187 110.32 137.51 110.381 136.859 110.245C136.207 110.11 135.611 109.785 135.144 109.31C134.678 108.836 134.362 108.234 134.238 107.58C134.114 106.927 134.186 106.251 134.446 105.639C134.706 105.026 135.141 104.504 135.697 104.14C136.254 103.775 136.906 103.583 137.571 103.588C138.236 103.594 138.885 103.797 139.435 104.171C139.985 104.545 140.412 105.074 140.661 105.691C140.993 106.518 140.984 107.443 140.636 108.264C140.288 109.084 139.629 109.734 138.804 110.07Z" fill="#13969D"/>
<path d="M133.691 79.4825C132.457 79.9813 131.399 80.8347 130.651 81.9348C129.902 83.0349 129.497 84.3322 129.486 85.6627C129.475 86.9933 129.858 88.2972 130.588 89.4097C131.318 90.5222 132.361 91.3933 133.586 91.9128C134.811 92.4323 136.163 92.5769 137.47 92.3283C138.777 92.0797 139.981 91.449 140.93 90.5161C141.879 89.5832 142.529 88.3899 142.8 87.0871C143.07 85.7844 142.949 84.4306 142.45 83.1971C141.781 81.543 140.482 80.2224 138.84 79.5257C137.197 78.8291 135.345 78.8135 133.691 79.4825ZM138.105 90.3969C137.179 90.771 136.164 90.8624 135.187 90.6595C134.21 90.4566 133.315 89.9685 132.615 89.2569C131.916 88.5454 131.443 87.6423 131.256 86.662C131.07 85.6816 131.178 84.668 131.568 83.7493C131.957 82.8306 132.611 82.048 133.445 81.5006C134.279 80.9532 135.257 80.6654 136.255 80.6738C137.253 80.6822 138.226 80.9863 139.051 81.5477C139.876 82.1091 140.516 82.9025 140.891 83.8276C141.392 85.0682 141.381 86.4573 140.858 87.6893C140.336 88.9212 139.345 89.8952 138.105 90.3969Z" fill="#13969D"/>
<path d="M75.5993 79.3903C77.3216 78.6938 78.1531 76.733 77.4566 75.0108C76.7602 73.2885 74.7994 72.457 73.0771 73.1535C71.3549 73.8499 70.5233 75.8107 71.2198 77.533C71.9163 79.2552 73.8771 80.0867 75.5993 79.3903Z" fill="#21ABAB"/>
<path d="M147.323 50.3854C149.045 49.6889 149.876 47.7281 149.18 46.0059C148.483 44.2837 146.523 43.4521 144.8 44.1486C143.078 44.8451 142.247 46.8058 142.943 48.5281C143.64 50.2503 145.6 51.0819 147.323 50.3854Z" fill="#21ABAB"/>
<path d="M144.078 100.681C145.8 99.9843 146.631 98.0236 145.935 96.3013C145.238 94.5791 143.278 93.7475 141.555 94.444C139.833 95.1405 139.002 97.1012 139.698 98.8235C140.395 100.546 142.355 101.377 144.078 100.681Z" fill="#13969D"/>
<path d="M105.958 96.1405C107.68 95.444 108.511 93.4833 107.815 91.761C107.118 90.0388 105.158 89.2072 103.435 89.9037C101.713 90.6002 100.882 92.561 101.578 94.2832C102.275 96.0054 104.235 96.837 105.958 96.1405Z" fill="#13969D"/>
<path d="M125.264 81.0761C126.986 80.3796 127.818 78.4188 127.122 76.6966C126.425 74.9743 124.464 74.1428 122.742 74.8393C121.02 75.5357 120.188 77.4965 120.885 79.2187C121.581 80.941 123.542 81.7725 125.264 81.0761Z" fill="#13969D"/>
<path d="M103.343 147.995C105.065 147.299 105.897 145.338 105.201 143.616C104.504 141.893 102.543 141.062 100.821 141.758C99.0988 142.455 98.2672 144.415 98.9637 146.138C99.6602 147.86 101.621 148.691 103.343 147.995Z" fill="#21ABAB"/>
<path d="M125.631 95.4412C126.492 95.093 126.908 94.1126 126.56 93.2515C126.211 92.3904 125.231 91.9746 124.37 92.3228C123.509 92.6711 123.093 93.6514 123.441 94.5126C123.789 95.3737 124.77 95.7895 125.631 95.4412Z" fill="#13969D"/>
<path d="M128.52 116.043C129.381 115.695 129.797 114.715 129.449 113.854C129.1 112.992 128.12 112.577 127.259 112.925C126.398 113.273 125.982 114.253 126.33 115.115C126.678 115.976 127.659 116.392 128.52 116.043Z" fill="#13969D"/>
<path d="M79.4855 115.917C80.3466 115.569 80.7624 114.588 80.4142 113.727C80.0659 112.866 79.0855 112.45 78.2244 112.798C77.3633 113.147 76.9475 114.127 77.2958 114.988C77.644 115.849 78.6244 116.265 79.4855 115.917Z" fill="#21ABAB"/>
<path d="M106.417 52.4141C107.278 52.0659 107.693 51.0855 107.345 50.2244C106.997 49.3633 106.017 48.9475 105.156 49.2957C104.294 49.644 103.879 50.6243 104.227 51.4855C104.575 52.3466 105.555 52.7624 106.417 52.4141Z" fill="#21ABAB"/>
<path d="M142.988 142.848C143.849 142.5 144.265 141.519 143.917 140.658C143.568 139.797 142.588 139.381 141.727 139.73C140.866 140.078 140.45 141.058 140.798 141.919C141.147 142.78 142.127 143.196 142.988 142.848Z" fill="#21ABAB"/>
</g>
<g clip-path="url(#clip1)">
<path d="M42.0562 46.7866C43.195 46.6862 44.0367 45.6816 43.9362 44.5428C43.8357 43.4041 42.8312 42.5624 41.6924 42.6628C40.5536 42.7633 39.7119 43.7679 39.8124 44.9066C39.9129 46.0454 40.9175 46.8871 42.0562 46.7866Z" fill="#107C82"/>
<path d="M29.321 43.7544C31.5985 43.5535 33.2819 41.5443 33.081 39.2668C32.88 36.9893 30.8709 35.3059 28.5933 35.5068C26.3158 35.7077 24.6324 37.7169 24.8334 39.9944C25.0343 42.2719 27.0435 43.9553 29.321 43.7544Z" fill="#107C82"/>
<path d="M33.2024 28.8662C34.3411 28.7657 35.1829 27.7612 35.0824 26.6224C34.9819 25.4836 33.9773 24.6419 32.8386 24.7424C31.6998 24.8429 30.8581 25.8475 30.9586 26.9862C31.059 28.125 32.0636 28.9667 33.2024 28.8662Z" fill="#107C82"/>
<path d="M65.6166 31.2014C66.1635 31.1531 66.7071 31.3241 67.1279 31.6766C67.5487 32.0292 67.8122 32.5345 67.8605 33.0813C67.9087 33.6282 67.7377 34.1718 67.3852 34.5926C67.0326 35.0134 66.5273 35.2769 65.9805 35.3252L62.8876 35.598C60.3263 35.9423 57.8278 36.6526 55.4684 37.7071C55.2547 40.0543 54.6151 42.3428 53.581 44.4607C55.0918 47.1496 57.0103 49.588 59.2682 51.689L61.3203 53.3989L61.341 53.3971C61.9527 53.3431 62.5666 53.4717 63.1052 53.7667C63.6438 54.0617 64.0829 54.5097 64.3668 55.0542C64.6508 55.5987 64.7669 56.2152 64.7005 56.8257C64.6341 57.4362 64.3881 58.0132 63.9937 58.4839C63.5994 58.9546 63.0742 59.2978 62.4848 59.4701C61.8954 59.6424 61.2681 59.636 60.6823 59.4518C60.0965 59.2675 59.5785 58.9137 59.1938 58.4351C58.8091 57.9564 58.5749 57.3745 58.521 56.7628L58.5191 56.7422L56.4764 55.021C54.1067 53.2313 51.4803 51.8098 48.6861 50.8044C46.4912 52.6995 43.9014 54.0815 41.1052 54.8498C40.4801 57.3574 40.2182 59.9417 40.3277 62.5237L40.6005 65.6166C40.6488 66.1634 40.4778 66.7071 40.1252 67.1279C39.7727 67.5487 39.2674 67.8122 38.7205 67.8604C38.1737 67.9087 37.6301 67.7377 37.2093 67.3851C36.7885 67.0326 36.525 66.5273 36.4767 65.9804L36.2038 62.8876C35.8595 60.3263 35.1492 57.8277 34.0947 55.4683C31.2072 55.2015 28.4155 54.2942 25.9227 52.8126C23.3476 54.2917 21.0107 56.1512 18.991 58.3281L17.2811 60.3803L17.2829 60.4009C17.3369 61.0126 17.2082 61.6266 16.9133 62.1652C16.6183 62.7038 16.1702 63.1428 15.6257 63.4268C15.0812 63.7107 14.4648 63.8269 13.8543 63.7604C13.2438 63.694 12.6667 63.4481 12.196 63.0537C11.7253 62.6593 11.3821 62.1342 11.2099 61.5448C11.0376 60.9554 11.044 60.3281 11.2282 59.7423C11.4124 59.1565 11.7662 58.6385 12.2449 58.2538C12.7235 57.869 13.3055 57.6349 13.9172 57.5809L13.9378 57.5791L15.6589 55.5363C17.5141 53.0725 18.976 50.3359 19.9926 47.424C18.6037 45.5199 17.5734 43.3786 16.952 41.1052C14.4445 40.48 11.8601 40.2182 9.27812 40.3276L6.18527 40.6005C5.63842 40.6487 5.0948 40.4778 4.674 40.1252C4.25321 39.7726 3.9897 39.2673 3.94146 38.7205C3.89321 38.1736 4.06418 37.63 4.41674 37.2092C4.76931 36.7884 5.2746 36.5249 5.82145 36.4767L8.91431 36.2038C11.4756 35.8595 13.9741 35.1492 16.3335 34.0947C16.5473 31.7476 17.1868 29.459 18.2209 27.3411C16.7101 24.6522 14.7916 22.2138 12.5337 20.1128L10.4816 18.403L10.4609 18.4048C9.84924 18.4587 9.23526 18.3301 8.69666 18.0351C8.15806 17.7402 7.71903 17.2921 7.43508 16.7476C7.15113 16.2031 7.03502 15.5866 7.10143 14.9762C7.16783 14.3657 7.41378 13.7886 7.80816 13.3179C8.20255 12.8472 8.72765 12.504 9.31708 12.3317C9.90651 12.1595 10.5338 12.1658 11.1196 12.3501C11.7054 12.5343 12.2234 12.8881 12.6081 13.3667C12.9928 13.8454 13.227 14.4273 13.2809 15.0391L13.2828 15.0597L15.3255 16.7808C17.6952 18.5705 20.3216 19.9921 23.1158 20.9975C25.3107 19.1023 27.9005 17.7203 30.6967 16.952C31.3218 14.4444 31.5837 11.8601 31.4742 9.27808L31.2014 6.18523C31.1531 5.63838 31.3241 5.09476 31.6767 4.67396C32.0292 4.25317 32.5345 3.98966 33.0814 3.94142C33.6282 3.89317 34.1719 4.06414 34.5927 4.41671C35.0134 4.76927 35.2769 5.27456 35.3252 5.82141L35.5981 8.91427C35.9424 11.4755 36.6527 13.9741 37.7072 16.3335C40.5947 16.6004 43.3864 17.5076 45.8792 18.9892C48.4543 17.5101 50.7912 15.6507 52.8109 13.4737L54.5208 11.4215L54.519 11.4009C54.465 10.7892 54.5937 10.1752 54.8886 9.63662C55.1836 9.09802 55.6317 8.65899 56.1762 8.37504C56.7207 8.09109 57.3371 7.97498 57.9476 8.04139C58.5581 8.10779 59.1352 8.35374 59.6059 8.74812C60.0766 9.14251 60.4198 9.66761 60.592 10.257C60.7643 10.8465 60.7579 11.4737 60.5737 12.0595C60.3895 12.6453 60.0357 13.1633 59.557 13.5481C59.0784 13.9328 58.4964 14.1669 57.8847 14.2209L57.8641 14.2227L56.143 16.2655C54.2878 18.7294 52.8259 21.466 51.8093 24.3778C53.1982 26.2819 54.2285 28.4232 54.8499 30.6967C57.3575 31.3218 59.9418 31.5836 62.5238 31.4742L65.6166 31.2014ZM47.9995 31.7166C47.9455 31.1049 47.7114 30.5229 47.3267 30.0443C46.942 29.5657 46.4239 29.2119 45.8381 29.0276C45.2523 28.8434 44.6251 28.837 44.0357 29.0093C43.4462 29.1816 42.9211 29.5247 42.5267 29.9954C42.1324 30.4661 41.8864 31.0432 41.82 31.6537C41.7536 32.2642 41.8697 32.8807 42.1537 33.4251C42.4376 33.9696 42.8766 34.4177 43.4152 34.7127C43.9538 35.0077 44.5678 35.1363 45.1795 35.0823C45.9998 35.01 46.7577 34.6147 47.2866 33.9835C47.8154 33.3523 48.0719 32.5369 47.9995 31.7166ZM43.9362 44.5428C43.9002 44.135 43.7441 43.747 43.4876 43.4279C43.2312 43.1088 42.8858 42.873 42.4953 42.7501C42.1048 42.6273 41.6866 42.6231 41.2936 42.7379C40.9007 42.8528 40.5506 43.0815 40.2877 43.3954C40.0248 43.7092 39.8608 44.0939 39.8165 44.5009C39.7722 44.9078 39.8497 45.3188 40.039 45.6818C40.2283 46.0448 40.5209 46.3435 40.88 46.5402C41.2391 46.7368 41.6484 46.8226 42.0562 46.7866C42.6024 46.7368 43.1067 46.4728 43.4589 46.0524C43.8112 45.632 43.9828 45.0893 43.9362 44.5428ZM35.0824 26.6224C35.0464 26.2145 34.8903 25.8266 34.6338 25.5075C34.3773 25.1884 34.032 24.9525 33.6415 24.8297C33.2509 24.7069 32.8327 24.7026 32.4398 24.8175C32.0468 24.9323 31.6968 25.1611 31.4339 25.4749C31.1709 25.7887 31.007 26.1734 30.9627 26.5804C30.9184 26.9874 30.9958 27.3984 31.1851 27.7614C31.3744 28.1244 31.6671 28.4231 32.0262 28.6197C32.3852 28.8164 32.7946 28.9021 33.2024 28.8662C33.7486 28.8163 34.2529 28.5524 34.6051 28.132C34.9574 27.7116 35.1289 27.1688 35.0824 26.6224ZM33.081 39.2666C33.009 38.451 32.6968 37.6751 32.1838 37.0369C31.6709 36.3987 30.9802 35.927 30.1991 35.6813C29.4181 35.4357 28.5817 35.4272 27.7958 35.6569C27.0099 35.8865 26.3098 36.3441 25.7839 36.9717C25.2581 37.5993 24.9302 38.3688 24.8416 39.1828C24.7531 39.9967 24.9079 40.8187 25.2865 41.5447C25.6651 42.2707 26.2505 42.8681 26.9686 43.2614C27.6867 43.6547 28.5054 43.8262 29.321 43.7543C30.4147 43.6578 31.4252 43.1308 32.1304 42.2892C32.8355 41.4476 33.1774 40.3603 33.081 39.2666Z" fill="#34C1AD"/>
<path d="M45.1795 35.0823C46.8877 34.9316 48.1502 33.4247 47.9995 31.7166C47.8488 30.0084 46.3419 28.7459 44.6338 28.8966C42.9257 29.0473 41.6631 30.5542 41.8138 32.2623C41.9645 33.9704 43.4714 35.233 45.1795 35.0823Z" fill="#107C82"/>
<path d="M34.4457 19.4058C31.1833 19.6936 28.0794 20.9424 25.5267 22.9943C22.974 25.0461 21.0871 27.8088 20.1045 30.9331C19.1219 34.0573 19.0879 37.4028 20.0066 40.5464C20.9254 43.69 22.7557 46.4906 25.2661 48.594C27.7766 50.6973 30.8543 52.0091 34.1102 52.3632C37.3661 52.7174 40.654 52.0981 43.5579 50.5838C46.4619 49.0694 48.8516 46.7278 50.4248 43.8553C51.998 40.9828 52.684 37.7082 52.3962 34.4458C52.0103 30.071 49.9022 26.0287 46.5359 23.2081C43.1695 20.3876 38.8205 19.0199 34.4457 19.4058ZM29.321 43.7544C28.5054 43.8263 27.6868 43.6548 26.9686 43.2615C26.2505 42.8682 25.6651 42.2708 25.2865 41.5448C24.9079 40.8188 24.7531 39.9969 24.8416 39.1829C24.9302 38.3689 25.2581 37.5995 25.784 36.9719C26.3098 36.3443 27.01 35.8867 27.7959 35.657C28.5818 35.4273 29.4181 35.4358 30.1992 35.6815C30.9802 35.9271 31.6709 36.3988 32.1839 37.037C32.6968 37.6752 33.009 38.4512 33.081 39.2668C33.1775 40.3605 32.8356 41.4477 32.1304 42.2893C31.4253 43.1309 30.4147 43.6579 29.321 43.7544ZM33.2024 28.8663C32.7946 28.9023 32.3853 28.8165 32.0262 28.6199C31.6672 28.4232 31.3745 28.1245 31.1852 27.7615C30.9959 27.3985 30.9185 26.9875 30.9627 26.5805C31.007 26.1736 31.171 25.7888 31.4339 25.475C31.6968 25.1612 32.0469 24.9324 32.4398 24.8176C32.8328 24.7028 33.251 24.707 33.6415 24.8298C34.032 24.9527 34.3774 25.1885 34.6338 25.5076C34.8903 25.8267 35.0464 26.2147 35.0824 26.6225C35.129 27.169 34.9574 27.7117 34.6052 28.1321C34.2529 28.5525 33.7486 28.8165 33.2024 28.8663ZM42.0562 46.7868C41.6484 46.8227 41.2391 46.737 40.8801 46.5403C40.521 46.3437 40.2283 46.045 40.039 45.682C39.8497 45.319 39.7723 44.908 39.8166 44.501C39.8608 44.094 40.0248 43.7093 40.2877 43.3955C40.5506 43.0817 40.9007 42.8529 41.2937 42.7381C41.6866 42.6232 42.1048 42.6275 42.4953 42.7503C42.8859 42.8731 43.2312 43.109 43.4877 43.4281C43.7442 43.7472 43.9003 44.1351 43.9362 44.5429C43.9828 45.0894 43.8112 45.6321 43.459 46.0526C43.1067 46.473 42.6024 46.7369 42.0562 46.7868ZM45.1796 35.0825C44.5678 35.1364 43.9539 35.0078 43.4153 34.7128C42.8767 34.4178 42.4376 33.9698 42.1537 33.4253C41.8697 32.8808 41.7536 32.2643 41.82 31.6538C41.8864 31.0434 42.1324 30.4663 42.5268 29.9956C42.9212 29.5249 43.4463 29.1817 44.0357 29.0094C44.6251 28.8371 45.2524 28.8435 45.8382 29.0278C46.424 29.212 46.942 29.5658 47.3267 30.0444C47.7114 30.5231 47.9456 31.105 47.9995 31.7167C48.0719 32.537 47.8155 33.3525 47.2866 33.9836C46.7578 34.6148 45.9998 35.0101 45.1796 35.0825Z" fill="#21ABAB"/>
<path d="M28.5024 34.4757C27.4829 34.5656 26.513 34.9558 25.7152 35.597C24.9175 36.2382 24.3278 37.1016 24.0208 38.0779C23.7137 39.0542 23.7031 40.0997 23.9902 41.0821C24.2773 42.0645 24.8493 42.9396 25.6338 43.5969C26.4183 44.2542 27.3801 44.6642 28.3976 44.7748C29.415 44.8855 30.4425 44.692 31.35 44.2187C32.2575 43.7455 33.0042 43.0138 33.4959 42.1161C33.9875 41.2184 34.2019 40.1952 34.1119 39.1756C33.9913 37.8085 33.3326 36.5453 32.2806 35.6639C31.2286 34.7825 29.8695 34.355 28.5024 34.4757ZM29.321 43.7542C28.5054 43.8262 27.6868 43.6547 26.9686 43.2614C26.2505 42.868 25.6651 42.2706 25.2865 41.5446C24.9079 40.8187 24.7531 39.9967 24.8416 39.1827C24.9302 38.3687 25.2581 37.5993 25.784 36.9717C26.3098 36.3441 27.0099 35.8865 27.7958 35.6568C28.5817 35.4271 29.4181 35.4356 30.1992 35.6813C30.9802 35.9269 31.6709 36.3987 32.1839 37.0368C32.6968 37.675 33.009 38.451 33.081 39.2666C33.1775 40.3603 32.8355 41.4475 32.1304 42.2891C31.4253 43.1307 30.4147 43.6577 29.321 43.7542Z" fill="#13969D"/>
<path d="M32.7476 23.7115C32.1359 23.7655 31.554 23.9996 31.0753 24.3843C30.5967 24.7691 30.2429 25.2871 30.0587 25.8729C29.8744 26.4587 29.868 27.0859 30.0403 27.6754C30.2126 28.2648 30.5558 28.7899 31.0265 29.1843C31.4972 29.5787 32.0743 29.8246 32.6847 29.891C33.2952 29.9574 33.9117 29.8413 34.4562 29.5574C35.0007 29.2734 35.4487 28.8344 35.7437 28.2958C36.0387 27.7572 36.1673 27.1432 36.1134 26.5315C36.041 25.7112 35.6457 24.9533 35.0145 24.4244C34.3833 23.8956 33.5679 23.6391 32.7476 23.7115ZM33.2024 28.8663C32.7946 28.9023 32.3853 28.8165 32.0262 28.6198C31.6672 28.4232 31.3745 28.1245 31.1852 27.7615C30.9959 27.3985 30.9185 26.9875 30.9627 26.5805C31.007 26.1735 31.171 25.7888 31.4339 25.475C31.6968 25.1612 32.0469 24.9324 32.4398 24.8176C32.8328 24.7027 33.251 24.707 33.6415 24.8298C34.032 24.9526 34.3774 25.1885 34.6339 25.5076C34.8903 25.8267 35.0464 26.2147 35.0824 26.6225C35.129 27.169 34.9574 27.7117 34.6052 28.1321C34.2529 28.5525 33.7486 28.8164 33.2024 28.8663Z" fill="#13969D"/>
<path d="M41.6015 41.6319C40.9898 41.6859 40.4078 41.92 39.9292 42.3048C39.4505 42.6895 39.0967 43.2075 38.9125 43.7933C38.7282 44.3791 38.7219 45.0064 38.8941 45.5958C39.0664 46.1852 39.4096 46.7103 39.8803 47.1047C40.351 47.4991 40.9281 47.745 41.5386 47.8114C42.149 47.8778 42.7655 47.7617 43.31 47.4778C43.8545 47.1938 44.3026 46.7548 44.5975 46.2162C44.8925 45.6776 45.0211 45.0636 44.9672 44.4519C44.8948 43.6316 44.4996 42.8737 43.8684 42.3449C43.2372 41.816 42.4217 41.5596 41.6015 41.6319ZM42.0562 46.7867C41.6484 46.8227 41.2391 46.7369 40.88 46.5403C40.521 46.3436 40.2283 46.0449 40.039 45.6819C39.8497 45.3189 39.7723 44.9079 39.8166 44.5009C39.8608 44.0939 40.0248 43.7092 40.2877 43.3954C40.5506 43.0816 40.9007 42.8528 41.2937 42.738C41.6866 42.6231 42.1048 42.6274 42.4953 42.7502C42.8858 42.873 43.2312 43.1089 43.4877 43.428C43.7442 43.7471 43.9002 44.1351 43.9362 44.5429C43.9828 45.0894 43.8112 45.6321 43.459 46.0525C43.1067 46.4729 42.6024 46.7368 42.0562 46.7867Z" fill="#13969D"/>
<path d="M44.5429 27.8657C43.7273 27.9376 42.9513 28.2498 42.3131 28.7628C41.6749 29.2757 41.2032 29.9664 40.9576 30.7475C40.7119 31.5286 40.7034 32.3649 40.9331 33.1508C41.1628 33.9367 41.6204 34.6369 42.248 35.1627C42.8756 35.6886 43.645 36.0165 44.459 36.105C45.273 36.1936 46.0949 36.0388 46.8209 35.6602C47.5469 35.2816 48.1443 34.6962 48.5376 33.978C48.9309 33.2599 49.1025 32.4413 49.0305 31.6257C48.934 30.532 48.407 29.5214 47.5654 28.8163C46.7238 28.1111 45.6366 27.7692 44.5429 27.8657ZM45.1796 35.0823C44.5678 35.1363 43.9539 35.0077 43.4153 34.7127C42.8767 34.4177 42.4376 33.9697 42.1537 33.4252C41.8697 32.8807 41.7536 32.2642 41.82 31.6537C41.8864 31.0432 42.1324 30.4661 42.5268 29.9954C42.9212 29.5247 43.4463 29.1816 44.0357 29.0093C44.6251 28.837 45.2524 28.8434 45.8382 29.0276C46.424 29.2119 46.942 29.5657 47.3267 30.0443C47.7114 30.5229 47.9456 31.1049 47.9995 31.7166C48.0719 32.5369 47.8155 33.3523 47.2866 33.9835C46.7578 34.6147 45.9998 35.01 45.1796 35.0823Z" fill="#13969D"/>
<path d="M10.37 17.3738C11.5088 17.2733 12.3505 16.2687 12.25 15.13C12.1495 13.9912 11.1449 13.1495 10.0062 13.25C8.86742 13.3504 8.02572 14.355 8.12618 15.4938C8.22665 16.6325 9.23124 17.4742 10.37 17.3738Z" fill="#21ABAB"/>
<path d="M57.7938 13.1899C58.9325 13.0895 59.7742 12.0849 59.6738 10.9461C59.5733 9.80738 58.5687 8.96567 57.4299 9.06614C56.2912 9.1666 55.4495 10.1712 55.5499 11.31C55.6504 12.4487 56.655 13.2904 57.7938 13.1899Z" fill="#21ABAB"/>
<path d="M61.7958 58.5518C62.9345 58.4513 63.7762 57.4467 63.6758 56.308C63.5753 55.1692 62.5707 54.3275 61.432 54.428C60.2932 54.5284 59.4515 55.533 59.552 56.6718C59.6524 57.8105 60.657 58.6522 61.7958 58.5518Z" fill="#21ABAB"/>
<path d="M46.8472 42.208C47.9859 42.1075 48.8276 41.103 48.7272 39.9642C48.6267 38.8254 47.6221 37.9837 46.4833 38.0842C45.3446 38.1847 44.5029 39.1893 44.6034 40.328C44.7038 41.4668 45.7084 42.3085 46.8472 42.208Z" fill="#13969D"/>
<path d="M25.2277 32.6868C26.3664 32.5863 27.2081 31.5817 27.1077 30.443C27.0072 29.3042 26.0026 28.4625 24.8638 28.563C23.7251 28.6634 22.8834 29.668 22.9838 30.8068C23.0843 31.9455 24.0889 32.7872 25.2277 32.6868Z" fill="#13969D"/>
<path d="M39.2972 27.2896C40.4359 27.1891 41.2776 26.1845 41.1772 25.0457C41.0767 23.907 40.0721 23.0653 38.9334 23.1657C37.7946 23.2662 36.9529 24.2708 37.0534 25.4096C37.1538 26.5483 38.1584 27.39 39.2972 27.2896Z" fill="#13969D"/>
<path d="M14.372 62.7358C15.5108 62.6354 16.3525 61.6308 16.252 60.492C16.1515 59.3533 15.1469 58.5116 14.0082 58.612C12.8694 58.7125 12.0277 59.7171 12.1282 60.8558C12.2287 61.9946 13.2332 62.8363 14.372 62.7358Z" fill="#21ABAB"/>
<path d="M65.8895 34.2942C66.4589 34.244 66.8797 33.7417 66.8295 33.1723C66.7793 32.6029 66.277 32.1821 65.7076 32.2323C65.1382 32.2825 64.7174 32.7848 64.7676 33.3542C64.8178 33.9236 65.3201 34.3444 65.8895 34.2942Z" fill="#21ABAB"/>
<path d="M36.9319 35.8101C37.5013 35.7598 37.9221 35.2575 37.8719 34.6882C37.8217 34.1188 37.3194 33.6979 36.75 33.7482C36.1806 33.7984 35.7598 34.3007 35.81 34.8701C35.8602 35.4394 36.3625 35.8603 36.9319 35.8101Z" fill="#13969D"/>
<path d="M34.9305 48.4544C35.4999 48.4041 35.9207 47.9018 35.8705 47.3324C35.8203 46.7631 35.318 46.3422 34.7486 46.3924C34.1792 46.4427 33.7584 46.945 33.8086 47.5144C33.8588 48.0837 34.3611 48.5046 34.9305 48.4544Z" fill="#13969D"/>
<path d="M6.09433 39.5696C6.66371 39.5193 7.08456 39.0171 7.03433 38.4477C6.98409 37.8783 6.4818 37.4574 5.91242 37.5077C5.34304 37.5579 4.92219 38.0602 4.97242 38.6296C5.02266 39.199 5.52495 39.6198 6.09433 39.5696Z" fill="#21ABAB"/>
<path d="M33.3543 7.03443C33.9237 6.98419 34.3445 6.4819 34.2943 5.91252C34.244 5.34314 33.7417 4.92229 33.1724 4.97252C32.603 5.02276 32.1821 5.52505 32.2324 6.09443C32.2826 6.66381 32.7849 7.08466 33.3543 7.03443Z" fill="#21ABAB"/>
<path d="M38.6296 66.8296C39.199 66.7793 39.6198 66.2771 39.5696 65.7077C39.5194 65.1383 39.0171 64.7175 38.4477 64.7677C37.8783 64.8179 37.4575 65.3202 37.5077 65.8896C37.5579 66.459 38.0602 66.8798 38.6296 66.8296Z" fill="#21ABAB"/>
</g>
<defs>
<clipPath id="clip0">
<rect x="54" y="66.3547" width="107.64" height="107.64" transform="rotate(-22.0185 54 66.3547)" fill="white"/>
</clipPath>
<clipPath id="clip1">
<rect y="5.82104" width="66.2372" height="66.2372" transform="rotate(-5.04176 0 5.82104)" fill="white"/>
</clipPath>
</defs>
</svg>